{
    "resources": [
        {
            "name": "org-sink-4587",
            "type": "storage.v1.bucket",
            "properties": {
                "location": "us-east1",
                "storageClass": "REGIONAL"
            }
        },  
        {
            "name": "orgsink",
            "type": "planar-maxim-189715/orgsink2:sinks",
            "properties": {
                "parent": "organizations/482676055061",
                "name": "org-log-sink-all",
                "includeChildren": true,
                "destination": "storage.googleapis.com/org-sink-4587" 
            }
        }
        ]
}